[
  {
    "model": "shopapp.product",
    "pk": 1,
    "fields": {
      "name": "Laptop 2",
      "description": "Sit unde nostrum vero",
      "price": "2999.00",
      "discount": 7,
      "created_at": "2023-02-04T14:57:59.501Z",
      "archived": true
    }
  },
  {
    "model": "shopapp.product",
    "pk": 2,
    "fields": {
      "name": "Desktop",
      "description": "Its very smart",
      "price": "2599.00",
      "discount": 10,
      "created_at": "2023-02-04T14:57:59.501Z",
      "archived": false
    }
  },
  {
    "model": "shopapp.product",
    "pk": 3,
    "fields": {
      "name": "Smartphone",
      "description": "Sit unde nostrum vero ipsum vel reprehenderit, quam blanditiis sapiente tempora ab minima suscipit, ratione ipsum aut cumque delectus fugit architecto hic dolor beatae, corrupti molestiae possimus cupiditate et libero ratione? Id impedit deserunt voluptates laudantium nesciunt nobis sed nam quis, dicta earum exercitationem natus praesentium beatae quam accusantium expedita deleniti, nesciunt eius sapiente neque dicta optio labore facere inventore voluptate autem, numquam rerum quas totam tenetur neque perferendis maxime minima distinctio tempore? Laudantium praesentium eius architecto exercitationem ullam maiores vel eaque necessitatibus, cum maiores eligendi corporis iusto et impedit in voluptate? Dolores obcaecati culpa, et blanditiis ad nulla incidunt eligendi.",
      "price": "987.00",
      "discount": 25,
      "created_at": "2023-02-04T14:57:59.501Z",
      "archived": false
    }
  },
  {
    "model": "shopapp.product",
    "pk": 4,
    "fields": {
      "name": "Tablet",
      "description": "great tablet",
      "price": "1234.00",
      "discount": 0,
      "created_at": "2023-02-21T14:35:20.230Z",
      "archived": false
    }
  },
  {
    "model": "shopapp.product",
    "pk": 5,
    "fields": {
      "name": "Phone2",
      "description": "phone 2 is better than phone 1\r\nthis is a great phone!",
      "price": "12345.00",
      "discount": 0,
      "created_at": "2023-02-22T10:30:34.732Z",
      "archived": false
    }
  },
  {
    "model": "shopapp.product",
    "pk": 6,
    "fields": {
      "name": "Phone 3",
      "description": "phone 3",
      "price": "999.42",
      "discount": 12,
      "created_at": "2023-02-22T12:23:59.583Z",
      "archived": true
    }
  },
  {
    "model": "shopapp.product",
    "pk": 7,
    "fields": {
      "name": "Tablet 2",
      "description": "a new tablet",
      "price": "1500.00",
      "discount": 15,
      "created_at": "2023-02-22T12:30:55.115Z",
      "archived": true
    }
  }
]